<?xml version="1.0" encoding="utf-8"?>
<!-- Generator: Adobe Illustrator 23.0.3, SVG Export Plug-In . SVG Version: 6.00 Build 0)  -->
<svg version="1.1" id="Capa_1" xmlns="http://www.w3.org/2000/svg" xmlns:xlink="http://www.w3.org/1999/xlink" x="0px" y="0px"
	 viewBox="0 0 33 33" style="enable-background:new 0 0 33 33;" xml:space="preserve">
<style type="text/css">
	.st0{fill-rule:evenodd;clip-rule:evenodd;fill:#C9D6FF;}
</style>
<path class="st0" d="M32.6,14.2L28.5,10c-0.3-0.3-0.6-0.4-1-0.4h-4.1V4.1c0-0.8-0.6-1.4-1.4-1.4H1.4C0.6,2.8,0,3.4,0,4.1V22
	c0,0.8,0.6,1.4,1.4,1.4h1.9c-0.3,0.6-0.5,1.3-0.5,2.1c0,2.7,2.2,4.8,4.8,4.8s4.8-2.2,4.8-4.8c0-0.7-0.2-1.4-0.5-2.1h9.2
	c-0.3,0.6-0.5,1.3-0.5,2.1c0,2.7,2.2,4.8,4.8,4.8s4.8-2.2,4.8-4.8c0-0.7-0.2-1.4-0.5-2.1h1.9c0.8,0,1.4-0.6,1.4-1.4v-6.9
	C33,14.8,32.9,14.4,32.6,14.2z M2.8,5.5h17.9V11v9.6H2.8V5.5z M9.6,25.4c0,1.1-0.9,2.1-2.1,2.1s-2.1-0.9-2.1-2.1s0.9-2.1,2.1-2.1
	S9.6,24.3,9.6,25.4z M27.5,25.4c0,1.1-0.9,2.1-2.1,2.1s-2.1-0.9-2.1-2.1s0.9-2.1,2.1-2.1S27.5,24.3,27.5,25.4z M30.3,20.6h-6.9v-8.3
	h3.6l3.3,3.3V20.6z"/>
</svg>
